<?xml version="1.0" encoding="UTF-8" standalone="no"?>
<!-- Created with Inkscape (http://www.inkscape.org/) -->

<svg
   xmlns:dc="http://purl.org/dc/elements/1.1/"
   xmlns:cc="http://creativecommons.org/ns#"
   xmlns:rdf="http://www.w3.org/1999/02/22-rdf-syntax-ns#"
   xmlns:svg="http://www.w3.org/2000/svg"
   xmlns="http://www.w3.org/2000/svg"
   xmlns:sodipodi="http://sodipodi.sourceforge.net/DTD/sodipodi-0.dtd"
   xmlns:inkscape="http://www.inkscape.org/namespaces/inkscape"
   width="22"
   height="22"
   id="svg4359"
   version="1.1"
   inkscape:version="0.91+devel r"
   sodipodi:docname="kdenlive-split-audio.svg">
  <defs
     id="defs4361" />
  <sodipodi:namedview
     id="base"
     pagecolor="#ffffff"
     bordercolor="#666666"
     borderopacity="1.0"
     inkscape:pageopacity="0.0"
     inkscape:pageshadow="2"
     inkscape:zoom="23.90909"
     inkscape:cx="14.462637"
     inkscape:cy="12.854779"
     inkscape:current-layer="layer1"
     showgrid="true"
     inkscape:grid-bbox="true"
     inkscape:document-units="px"
     inkscape:window-width="1366"
     inkscape:window-height="670"
     inkscape:window-x="-4"
     inkscape:window-y="29"
     inkscape:window-maximized="1"
     inkscape:showpageshadow="false"
     borderlayer="true"
     showguides="true">
    <inkscape:grid
       type="xygrid"
       id="grid4105" />
    <sodipodi:guide
       position="0,22"
       orientation="22,0"
       id="guide4111" />
    <sodipodi:guide
       position="0,0"
       orientation="0,22"
       id="guide4113" />
    <sodipodi:guide
       position="22,0"
       orientation="-22,0"
       id="guide4115" />
    <sodipodi:guide
       position="11,10"
       orientation="16,0"
       id="guide4130" />
    <sodipodi:guide
       position="12,11"
       orientation="0,16"
       id="guide4132" />
    <sodipodi:guide
       position="19,19"
       orientation="0,-16"
       id="guide4136" />
    <sodipodi:guide
       position="3,22"
       orientation="19.000011,0"
       id="guide4152" />
    <sodipodi:guide
       position="3,2.9999886"
       orientation="0,4"
       id="guide4154" />
    <sodipodi:guide
       position="15,3"
       orientation="0,4.0000019"
       id="guide4162" />
    <sodipodi:guide
       position="19.000002,3"
       orientation="-19,0"
       id="guide4164" />
    <sodipodi:guide
       position="19.000002,22"
       orientation="0,-4.0000019"
       id="guide4166" />
  </sodipodi:namedview>
  <metadata
     id="metadata4364">
    <rdf:RDF>
      <cc:Work
         rdf:about="">
        <dc:format>image/svg+xml</dc:format>
        <dc:type
           rdf:resource="http://purl.org/dc/dcmitype/StillImage" />
        <dc:title />
      </cc:Work>
    </rdf:RDF>
  </metadata>
  <g
     id="layer1"
     inkscape:label="Layer 1"
     inkscape:groupmode="layer"
     transform="translate(0,-26)">
    <rect
       style="color:#000000;clip-rule:nonzero;display:inline;overflow:visible;visibility:visible;opacity:1;isolation:auto;mix-blend-mode:normal;color-interpolation:sRGB;color-interpolation-filters:linearRGB;solid-color:#000000;solid-opacity:1;fill:#0d389d;fill-opacity:1;fill-rule:nonzero;stroke:none;stroke-width:1;stroke-linecap:butt;stroke-linejoin:miter;stroke-miterlimit:4;stroke-dasharray:none;stroke-dashoffset:0;stroke-opacity:1;color-rendering:auto;image-rendering:auto;shape-rendering:auto;text-rendering:auto;enable-background:accumulate"
       id="rect4147"
       width="2"
       height="2"
       x="-2"
       y="26" />
    <path
       style="opacity:1;fill:#0d389d;fill-opacity:1;stroke:none;stroke-width:0.1;stroke-linecap:round;stroke-linejoin:miter;stroke-miterlimit:4;stroke-dasharray:none;stroke-opacity:0.29943501"
       d="M 12.099609 3 C 11.351463 3 8.8022836 4.8509499 7.2460938 6.9785156 L 6 8 L 6 10 L 12.099609 10 L 12.099609 3 z M 16.654297 5.3457031 L 15.947266 6.0527344 A 7 7 0 0 1 17.917969 10 L 18.927734 10 A 8 8 0 0 0 16.654297 5.3457031 z M 15.240234 6.7597656 L 14.533203 7.4667969 A 5 5 0 0 1 15.894531 10 L 16.908203 10 A 6 6 0 0 0 15.240234 6.7597656 z M 5 8 C 4 8 3 9 3 9 L 3 10 L 5 10 L 5 8 z M 13.826172 8.1738281 L 13.119141 8.8808594 A 3 3 0 0 1 13.822266 10 L 14.867188 10 A 4 4 0 0 0 13.826172 8.1738281 z M 3 12 L 3 13 C 3 13 4 14 5 14 L 5 12 L 3 12 z M 6 12 L 6 14 L 7.2460938 15.021484 C 8.8022836 17.14905 11.351463 19 12.099609 19 L 12.099609 12 L 6 12 z M 13.824219 12 A 3 3 0 0 1 13.119141 13.119141 L 13.826172 13.826172 A 4 4 0 0 0 14.867188 12 L 13.824219 12 z M 15.896484 12 A 5 5 0 0 1 14.533203 14.533203 L 15.240234 15.240234 A 6 6 0 0 0 16.910156 12 L 15.896484 12 z M 17.919922 12 A 7 7 0 0 1 15.947266 15.947266 L 16.654297 16.654297 A 8 8 0 0 0 18.925781 12 L 17.919922 12 z "
       transform="translate(0,26)"
       id="path4152" />
  </g>
</svg>
